Internet News and Consumer Engagement
…
tidy_articles <- clean_articles %>%
                 unnest_tokens(word, description) 

We will then anti-join stop words, which are common language fillers such as the and a (Silge and Robinson) so our text analysis is based on meaningful words.

data(stop_words)

tidy_articles <- tidy_articles %>%
                  anti_join(stop_words)

tidy_articles %>%
  count(word, sort = TRUE)

## # A tibble: 21,960 x 2
##    word          n
##    <chr>     <int>
##  1 news       1614
##  2 world       857
##  3 president   841
##  4 national    658
##  5 trump       614
##  6 top         596
##  7 u.s         593
##  8 video       509
##  9 online      480
## 10 coverage    449
## # ... with 21,950 more rows
…
Interesting to see ABC news with even lower correlation than ESPN’s. A closer look at the plot above shows the words world, news, video, coverage as clear outliers causing ABC News to have this awfully low correlation even though ESPN’s content is much more diverse.

Note: Our analysis results would have been much different had we used the content column in the description dataset. However, because results have been truncated to 260 characters we believe it would be very difficult to infer meaningful relationships through missing content, and therefore have based our analysis on the description column which provides an excellent summary of the article events, and is a lot more detailed than the title column.

Topic modeling

Now we move on to topic modeling, where our goal is to show you the various topic clusters within the articles dataset by article. We start by arranging our dataset into a tidy format.

wordsbyArticle <- tidy_articles %>%
                   count(article_id, word, sort = TRUE) 

wordsbyArticle

## # A tibble: 142,737 x 3
##    article_id           word       n
##    <chr>                <chr>  <int>
##  1 Business Insider_688 iphone     6
##  2 Business Insider_461 iphone     5
##  3 Business Insider_477 iphone     5
##  4 Business Insider_486 iphone     5
##  5 Business Insider_561 11         5
##  6 Business Insider_561 iphone     5
##  7 Business Insider_640 litter     5
##  8 Business Insider_805 coca       5
##  9 Business Insider_805 cola       5
## 10 CNN_621              iphone     5
## # ... with 142,727 more rows
…
Figure 5 - Weighting of our clustered topic categories amongst the various News providers

The results above are sensical. ESPN’s UK coverage is a result from the its UK premiere league coverage. BBC obviously has higher UK coverage than its counterparts. WSJ and the Business Insider are mostly focused on Economy and Trade as would be expected. CNN understandably has a much higher US coverage than any of its counterparts.

Sentiment Analysis

Now we’ll perform sentiment analysis using the bing dataset (Silge and Robinson). This lexicon provides a two-category sentiment which will be useful for our analysis. Using the tidytext package, we can obtain this lexicon by calling get_sentiments()

## # A tibble: 6,786 x 2
##    word        sentiment
##    <chr>       <chr>    
##  1 2-faces     negative 
##  2 abnormal    negative 
##  3 abolish     negative 
##  4 abominable  negative 
##  5 abominably  negative 
##  6 abominate   negative 
##  7 abomination negative 
##  8 abort       negative 
##  9 aborted     negative 
## 10 aborts      negative 
## # ... with 6,776 more rows

Here, we’ll inner_join the bing dataset to our tidied set, thereby eliminating any mismatch in words between these two datsets. We will also assign a sentiment score based on the frequency of either positive or negative words within each article_id

sentiment_bing <- tidy_articles %>%
  inner_join(get_sentiments("bing")) %>%
  count(article_id, source_name, sentiment) %>%
  spread(sentiment, n, fill = 0) %>%
  mutate(sentiment = positive - negative)

sentiment_bing

## # A tibble: 7,515 x 5
##    article_id    source_name negative positive sentiment
##    <chr>         <fct>          <dbl>    <dbl>     <dbl>
##  1 ABC News_1    ABC News           4        1        -3
##  2 ABC News_10   ABC News           1        1         0
##  3 ABC News_1001 ABC News           2        2         0
##  4 ABC News_1002 ABC News           1        1         0
##  5 ABC News_1004 ABC News           0        2         2
##  6 ABC News_1005 ABC News           2        0        -2
##  7 ABC News_1006 ABC News           1        0        -1
##  8 ABC News_1007 ABC News           0        1         1
##  9 ABC News_1008 ABC News           1        1         0
## 10 ABC News_1009 ABC News           1        1         0
## # ... with 7,505 more rows
…
